Capstone Quiz I
…
How many neighborhoods consist of only single-family homes? (e.g. Bldg.Type = 1Fam)

0

1

2

3

ames_train %>% group_by(Neighborhood) %>% summarise(mean=mean(Bldg.Type == "1Fam")) %>% arrange(desc(mean))

## # A tibble: 27 x 2
##    Neighborhood  mean
##    <fct>        <dbl>
##  1 ClearCr      1    
##  2 NoRidge      1    
##  3 Timber       1    
##  4 Gilbert      0.980
##  5 BrkSide      0.976
##  6 NWAmes       0.976
##  7 CollgCr      0.965
##  8 IDOTRR       0.943
##  9 NAmes        0.923
## 10 Sawyer       0.918
## # ... with 17 more rows
…
