Exploring the BRFSS data
…
We need to look deeper. So well create a new data health_income_persdoc2_medcost with only 3 deciding variables income2 (cumulative frequency : 85.48%), persdoc2 (cumulative frequency : 99.87%) and medcost (cumulative frequency : 99.94%). New data will be grouped by income, persdoc2 and then medcost. Well have one more column probability which holds the probability on whether a particular group (with income2 and persdoc2) will choose to go to see doctor or not.

health_income_persdoc2_medcost <- brfss2013 %>% 
  filter(!is.na(medcost), !is.na(income2), !is.na(persdoc2)) %>% 
  group_by(income2, persdoc2, medcost) %>% 
  summarize(n=n())

health_income_persdoc2_medcost <- health_income_persdoc2_medcost %>% mutate(probability=0)

health_income_persdoc2_medcost

## # A tibble: 48 x 5
## # Groups:   income2, persdoc2 [24]
##    income2           persdoc2      medcost     n probability
##    <fct>             <fct>         <fct>   <int>       <dbl>
##  1 Less than $10,000 Yes, only one Yes      3855           0
##  2 Less than $10,000 Yes, only one No      12639           0
##  3 Less than $10,000 More than one Yes       576           0
##  4 Less than $10,000 More than one No       1717           0
##  5 Less than $10,000 No            Yes      2820           0
##  6 Less than $10,000 No            No       3566           0
##  7 Less than $15,000 Yes, only one Yes      3883           0
##  8 Less than $15,000 Yes, only one No      14615           0
##  9 Less than $15,000 More than one Yes       576           0
## 10 Less than $15,000 More than one No       2060           0
## # ... with 38 more rows

We have to create one more data health_income_persdoc2 to know the no of people in the income2 and persdoc2 specific group

health_income_persdoc2 <- brfss2013 %>% 
  filter(!is.na(medcost), !is.na(income2), !is.na(persdoc2)) %>% 
  group_by(income2, persdoc2) %>% 
  summarize(n=n())

health_income_persdoc2

## # A tibble: 24 x 3
## # Groups:   income2 [?]
##    income2           persdoc2          n
##    <fct>             <fct>         <int>
##  1 Less than $10,000 Yes, only one 16494
##  2 Less than $10,000 More than one  2293
##  3 Less than $10,000 No             6386
##  4 Less than $15,000 Yes, only one 18498
##  5 Less than $15,000 More than one  2636
##  6 Less than $15,000 No             5446
##  7 Less than $20,000 Yes, only one 23800
##  8 Less than $20,000 More than one  3011
##  9 Less than $20,000 No             7767
## 10 Less than $25,000 Yes, only one 29611
## # ... with 14 more rows

Now well calculate the probability and save it in health_income_persdoc2_medcost based on the group count calculated & saved in health_income_persdoc2

for(i in 1:dim(health_income_persdoc2_medcost)[1]){
    
  inc     <- data.frame(lapply(health_income_persdoc2_medcost[i,1], as.character), stringsAsFactors=FALSE)
  persdoc <- data.frame(lapply(health_income_persdoc2_medcost[i,2], as.character), stringsAsFactors=FALSE)
    
  health_income_persdoc2_medcost <- health_income_persdoc2_medcost %>% 
          mutate(probability = ifelse((income2 %in% inc & persdoc2 %in% persdoc), n/(health_income_persdoc2 %>% filter(income2 %in% inc, persdoc2 %in% persdoc))$n,probability))
}

health_income_persdoc2_medcost

## # A tibble: 48 x 5
## # Groups:   income2, persdoc2 [24]
##    income2           persdoc2      medcost     n probability
##    <fct>             <fct>         <fct>   <int>       <dbl>
##  1 Less than $10,000 Yes, only one Yes      3855       0.234
##  2 Less than $10,000 Yes, only one No      12639       0.766
##  3 Less than $10,000 More than one Yes       576       0.251
##  4 Less than $10,000 More than one No       1717       0.749
##  5 Less than $10,000 No            Yes      2820       0.442
##  6 Less than $10,000 No            No       3566       0.558
##  7 Less than $15,000 Yes, only one Yes      3883       0.210
##  8 Less than $15,000 Yes, only one No      14615       0.790
##  9 Less than $15,000 More than one Yes       576       0.219
## 10 Less than $15,000 More than one No       2060       0.781
## # ... with 38 more rows
…
