Statistical inference with the GSS data
…
## n_Temp Not Working = 680, y_bar_Temp Not Working = 3.6779, s_Temp Not Working = 1.3352
## n_Unempl, Laid Off = 1076, y_bar_Unempl, Laid Off = 3.6176, s_Unempl, Laid Off = 1.3819
## n_Retired = 3967, y_bar_Retired = 3.7779, s_Retired = 1.434
## n_School = 1005, y_bar_School = 3.9995, s_School = 1.3365
## n_Keeping House = 5013, y_bar_Keeping House = 3.8336, s_Keeping House = 1.3445
## n_Other = 602, y_bar_Other = 3.4693, s_Other = 1.4765
## 
## ANOVA:
##              df     Sum_Sq Mean_Sq       F  p_value
## wrkstat       7   165.9201 23.7029 13.3153 < 0.0001
## Residuals 32263 57432.3299  1.7801                 
## Total     32270   57598.25                         
## 
## Pairwise tests - t tests with pooled SD:
## # A tibble: 28 x 3
##    group1           group2                p.value
##  * <chr>            <chr>                   <dbl>
##  1 Working Parttime Working Fulltime 0.0226      
##  2 Temp Not Working Working Fulltime 0.0878      
##  3 Unempl, Laid Off Working Fulltime 0.000369    
##  4 Retired          Working Fulltime 0.645       
##  5 School           Working Fulltime 0.0000000826
##  6 Keeping House    Working Fulltime 0.00197     
##  7 Other            Working Fulltime 0.0000000752
##  8 Temp Not Working Working Parttime 0.00893     
##  9 Unempl, Laid Off Working Parttime 0.00000942  
## 10 Retired          Working Parttime 0.135       
## # ... with 18 more rows
…
